[
  {
    "type": "text",
    "required": true,
    "columns": 8,
    "label": "Produktets navn",
    "value": true,
    "value_text": "Gårdsis krokan",
    "placeholder": false,
    "placeholder_text": ""
  },
  {
    "type": "status"
  },
  {
    "type": "select",
    "required": true,
    "columns": 12,
    "label": "Kategori",
    "options": [
      {
        "name": "Frukt og grønt",
        "selected": false
      },
      {
        "name": "Brød",
        "selected": false
      },
      {
        "name": "Meieriprodukter",
        "selected": true
      },
      {
        "name": "Kjøtt",
        "selected": false
      },
      {
        "name": "Fjærkre",
        "selected": false
      },
      {
        "name": "Fisk",
        "selected": false
      },
      {
        "name": "Oster",
        "selected": false
      },
      {
        "name": "Drikkevarer",
        "selected": false
      },
      {
        "name": "Olje og krydder",
        "selected": false
      },
      {
        "name": "Annet",
        "selected": false
      }
    ]
  },
  {
    "type": "textarea",
    "required": true,
    "rows": 3,
    "columns": 12,
    "label": "Kort beskrivelse",
    "value": true,
    "value_text": "Krokan er en gammel klassikker. Vi lager krokan selv av mandler, sukker og bittelitt salt! Saltet gir et lite piff og kontrast til det søte.",
    "placeholder": false,
    "placeholder_text": "",
    "charlimit": 350
  },
  {
    "type": "textarea",
    "required": true,
    "rows": 10,
    "columns": 12,
    "label": "Lang beskrivelse",
    "value": true,
    "value_text": "Bamsrudlåven ble etablert i 1997, ligger ved Mysen i Indre Østfold og drives av familien Klufterud. Vi driver selskapslokale og produserer vår egen iskrem med egg fra gårdens høner og melk fra nabogårdene. Ideen om å gjøre om låven til selskapslokale kom etter en familietur til Disneyland i Paris i 1994. Bestemor Ducks restaurant i en gamel låve ble inspirasjon til å gjøre om låven. Vårt mål er å skape en lett og behagelig atmosfære, hvor man kan senke skuldrene og nyte god hjemmelaget mat basert på lokale råvarer. Selskapslokalet går side om side med tradisjonell gårdsdrift. Eggproduksjon har det vært på Bamsrud Gård i over 30 år, og i dag er det 7500 frittgående høner som legger egg og selges under merkevaren Prior.",
    "placeholder": false,
    "placeholder_text": ""
  },
  {
    "type": "textarea",
    "required": true,
    "rows": 5,
    "columns": 12,
    "label": "Ingredienser",
    "value": true,
    "value_text": "Melk, sukker, eggeplomme, maltodekstrin, dekstrose, fortykningsmiddel (inulin), stablilsator (naturlig johannesbrødkjernemel), naturlig vaniljeekstrakt, vaniljefrø",
    "placeholder": false,
    "placeholder_text": "",
    "charlimit": 350
  },
  {
    "type": "text",
    "required": true,
    "columns": 12,
    "label": "Allergener",
    "value": true,
    "value_text": "Inneholder melk",
    "placeholder": false,
    "placeholder_text": ""
  },
  {
    "type": "text",
    "required": true,
    "columns": 12,
    "label": "Egenskaper",
    "value": true,
    "value_text": "Glutenfri",
    "placeholder": false,
    "placeholder_text": ""
  },
  {
    "type": "checkbox",
    "layout": "vertical",
    "label": "Merkeordninger",
    "options": [
      {
        "name": "Nyt Norge",
        "checked": true
      },
      {
        "name": "Spesialitet",
        "checked": true
      },
      {
        "name": "Beskyttet betegnelse",
        "checked": true
      },
      {
        "name": "Debio",
        "checked": false
      },
      {
        "name": "Nøkkelhull",
        "checked": false
      },
      {
        "name": "MSC",
        "checked": false
      }
    ]
  },
  {
    "type": "radio",
    "layout": "vertical",
    "label": "Type",
    "options": [
      {
        "name": "Tørrvare",
        "checked": false
      },
      {
        "name": "Ferskvare",
        "checked": false
      },
      {
        "name": "Frysevare",
        "checked": true
      }
    ]
  },
  {
    "type": "text",
    "required": true,
    "columns": 12,
    "label": "Oppbevaring",
    "value": true,
    "value_text": "-18ºC eller kaldere",
    "placeholder": false,
    "placeholder_text": ""
  },
  {
    "type": "select",
    "required": true,
    "columns": 8,
    "label": "Fylke",
    "options": [
      {
        "name": "Akershus",
        "selected": false
      },{
        "name": "Aust-Agder",
        "selected": false
      },{
        "name": "Buskerud",
        "selected": false
      },{
        "name": "Finnmark",
        "selected": false
      },{
        "name": "Hedmark",
        "selected": false
      },{
        "name": "Hordaland",
        "selected": false
      },{
        "name": "Møre og Romsdal",
        "selected": false
      },{
        "name": "Nord-Trøndelag",
        "selected": false
      },{
        "name": "Nordland",
        "selected": false
      },{
        "name": "Oppland",
        "selected": false
      },{
        "name": "Oslo",
        "selected": false
      },{
        "name": "Rogaland",
        "selected": false
      },{
        "name": "Sogn og Fjordane",
        "selected": false
      },{
        "name": "Sør-Trøndelag",
        "selected": false
      },{
        "name": "Telemark",
        "selected": false
      },{
        "name": "Troms",
        "selected": false
      },{
        "name": "Vest-Agder",
        "selected": false
      },{
        "name": "Vestfold",
        "selected": false
      },{
        "name": "Østfold",
        "selected": true
      }
    ]
  },
  {
    "type": "koordinater",
    "required": true,
    "label": "Koordinater",
    "tooltip": "Praesent commodo cursus magna, vel scelerisque nisl consectetur et. Lorem ipsum dolor sit amet, consectetur adipiscing elit. Sed posuere consectetur est at lobortis."
  },
  {
    "type": "checkbox",
    "layout": "vertical",
    "label": "Produktkategorisering",
    "options": [
      {
        "name": "Dagligvare",
        "checked": true
      },
      {
        "name": "Horeca (storkjøkken)",
        "checked": false
      },
      {
        "name": "Bondens marked",
        "checked": true
      },
      {
        "name": "Hanen",
        "checked": false
      }
    ]
  },
  {
    "type": "submit",
    "back-button": false,
    "submit-text": "Lagre"
  }
]
