[
  {
    "type": "text",
    "required": true,
    "columns": 8,
    "label": "Adresse",
    "value": true,
    "value_text": "Bamsrudveien 34, Mysen",
    "disabled": true
  },
  {
    "type": "text",
    "required": true,
    "columns": 8,
    "label": "Telefon",
    "value": true,
    "value_text": "431 29 910",
    "disabled": true
  },
  {
    "type": "text",
    "required": true,
    "columns": 8,
    "label": "Epost",
    "value": true,
    "value_text": "info@bamsrudlaven.no",
    "disabled": true
  }
]
