{
    "type": "FeatureCollection",
    "features": [{
        "type": "Feature",
        "geometry": {
            "type": "Point",
            "coordinates": [-77.034084142948,
                38.909671288923
            ]
        },
        "properties": {
            "title": "Mapboxsaft",
            "producer": "Bamsrudlåven",
            "description": "Nullam quis risus eget urna mollis ornare vel eu leo. Vestibulum id ligula porta felis",
            "tags": [
                "Meieriprodukt",
                "Østfold"
            ],
            "category": "kjøtt",
            "isFollowing": true,
            "liked": true
        }
    }, {
        "type": "Feature",
        "geometry": {
            "type": "Point",
            "coordinates": [-77.534084142948,
                38.909671288923
            ]
        },
        "properties": {
            "title": "Mapboxbiff",
            "producer": "Bamsrudlåven",
            "description": "Nullam quis risus eget urna mollis ornare vel eu leo. Vestibulum id ligula porta felis",
            "tags": [
                "Kjøtt",
                "Vestfold"
            ],
            "category": "melk",
            "isFollowing": false,
            "liked": false
        }
    }, {
        "type": "Feature",
        "geometry": {
            "type": "Point",
            "coordinates": [-77.034084142948,
                38.909671288923
            ]
        },
        "properties": {
            "title": "Mapboxsaft",
            "producer": "Bamsrudlåven",
            "description": "Nullam quis risus eget urna mollis ornare vel eu leo. Vestibulum id ligula porta felis",
            "tags": [
                "Meieriprodukt",
                "Østfold"
            ],
            "category": "kjøtt",
            "isFollowing": true,
            "liked": true
        }
    }, {
        "type": "Feature",
        "geometry": {
            "type": "Point",
            "coordinates": [-77.534084142948,
                38.909671288923
            ]
        },
        "properties": {
            "title": "Mapboxbiff",
            "producer": "Bamsrudlåven",
            "description": "Nullam quis risus eget urna mollis ornare vel eu leo. Vestibulum id ligula porta felis",
            "tags": [
                "Kjøtt",
                "Vestfold"
            ],
            "category": "kjøtt",
            "isFollowing": false,
            "liked": false
        }
    }, {
        "type": "Feature",
        "geometry": {
            "type": "Point",
            "coordinates": [-77.034084142948,
                38.909671288923
            ]
        },
        "properties": {
            "title": "Mapboxsaft",
            "producer": "Bamsrudlåven",
            "description": "Nullam quis risus eget urna mollis ornare vel eu leo. Vestibulum id ligula porta felis",
            "tags": [
                "Meieriprodukt",
                "Østfold"
            ],
            "category": "kjøtt",
            "isFollowing": true,
            "liked": true
        }
    }, {
        "type": "Feature",
        "geometry": {
            "type": "Point",
            "coordinates": [-77.534084142948,
                38.909671288923
            ]
        },
        "properties": {
            "title": "Mapboxbiff",
            "producer": "Bamsrudlåven",
            "description": "Nullam quis risus eget urna mollis ornare vel eu leo. Vestibulum id ligula porta felis",
            "tags": [
                "Kjøtt",
                "Vestfold"
            ],
            "category": "kjøtt",
            "isFollowing": false,
            "liked": false
        }
    }]
}
