[
  {
    "type": "profilepic",
    "required": true,
    "label": "Profilbilde"
  },
  {
    "type": "text",
    "required": true,
    "columns": 8,
    "label": "Produsentnavn for visning",
    "value": true,
    "value_text": "Bamsrudlåven",
    "placeholder": true,
    "placeholder_text": "Placeholder",
    "tooltip": "Praesent commodo cursus magna, vel scelerisque nisl consectetur et. Lorem ipsum dolor sit amet, consectetur adipiscing elit. Sed posuere consectetur est at lobortis."
  },
  {
    "type": "textarea",
    "required": true,
    "rows": 3,
    "columns": 12,
    "label": "Kort beskrivelse",
    "value": true,
    "value_text": "Når man driver med høner og egg, og frieren fra nabogården driver med melk, da oppstår det naturligvis søt musikk. Eller iskrem som de i dag produserer på Bamsrudlåven.",
    "placeholder": false,
    "placeholder_text": "",
    "charlimit": 350
  },
  {
    "type": "textarea",
    "required": true,
    "rows": 8,
    "columns": 12,
    "label": "Lang beskrivelse",
    "value": true,
    "value_text": "Bamsrudlåven ble etablert i 1997, ligger ved Mysen i Indre Østfold og drives av familien Klufterud. Vi driver selskapslokale og produserer vår egen iskrem med egg fra gårdens høner og melk fra nabogårdene. Ideen om å gjøre om låven til selskapslokale kom etter en familietur til Disneyland i Paris i 1994. Bestemor Ducks restaurant i en gamel låve ble inspirasjon til å gjøre om låven. Vårt mål er å skape en lett og behagelig atmosfære, hvor man kan senke skuldrene og nyte god hjemmelaget mat basert på lokale råvarer. Selskapslokalet går side om side med tradisjonell gårdsdrift. Eggproduksjon har det vært på Bamsrud Gård i over 30 år, og i dag er det 7500 frittgående høner som legger egg og selges under merkevaren Prior. Å lage et gårdsprodukt av gårdens råvarer var lenge en drøm. Ideen om å lage en italiensk inspirert melkeis kom natulig da en frier fra nabogården kom over åsen med fersk melk i spannet. Dagens melk og dagens egg gir dagens is! I 2013 sto et mikromeieri ferdig i underlåven, og produksjonen av Bamsrudlåven Gårdsis startet opp. Gårdsisen selges i enkelte daglivarebutikker rundt Oslofjorden. Forhandlerliste finner du her.",
    "placeholder": false,
    "placeholder_text": ""
  },
  {
    "type": "url",
    "required": false,
    "columns": 8,
    "label": "Facebook",
    "value": true,
    "value_text": "http://www.facebook.com/bamsrudlaven/",
    "placeholder": false,
    "placeholder_text": ""
  },
  {
    "type": "toggle",
    "required": false,
    "label": "Trade Solution",
    "value_text": "Ja",
    "default": true,
    "tooltip": "Praesent commodo cursus magna, vel scelerisque nisl consectetur et. Lorem ipsum dolor sit amet, consectetur adipiscing elit. Sed posuere consectetur est at lobortis."
  },
  {
    "type": "checkbox",
    "layout": "vertical",
    "label": "Leverer til",
    "options": [
      {
        "name": "Dagligvare",
        "checked": true
      },
      {
        "name": "Horeca (storkjøkken)",
        "checked": false
      },
      {
        "name": "Bondens marked",
        "checked": true
      },
      {
        "name": "Hanen",
        "checked": false
      }
    ],
    "tooltip": "Praesent commodo cursus magna, vel scelerisque nisl consectetur et. Lorem ipsum dolor sit amet, consectetur adipiscing elit. Sed posuere consectetur est at lobortis."
  },
  {
    "type": "select",
    "required": true,
    "columns": 8,
    "label": "Fylke",
    "options": [
      {
        "name": "Akershus",
        "selected": false
      },{
        "name": "Aust-Agder",
        "selected": false
      },{
        "name": "Buskerud",
        "selected": false
      },{
        "name": "Finnmark",
        "selected": false
      },{
        "name": "Hedmark",
        "selected": false
      },{
        "name": "Hordaland",
        "selected": false
      },{
        "name": "Møre og Romsdal",
        "selected": false
      },{
        "name": "Nord-Trøndelag",
        "selected": false
      },{
        "name": "Nordland",
        "selected": false
      },{
        "name": "Oppland",
        "selected": false
      },{
        "name": "Oslo",
        "selected": false
      },{
        "name": "Rogaland",
        "selected": false
      },{
        "name": "Sogn og Fjordane",
        "selected": false
      },{
        "name": "Sør-Trøndelag",
        "selected": false
      },{
        "name": "Telemark",
        "selected": false
      },{
        "name": "Troms",
        "selected": false
      },{
        "name": "Vest-Agder",
        "selected": false
      },{
        "name": "Vestfold",
        "selected": false
      },{
        "name": "Østfold",
        "selected": true
      }
    ]
  },
  {
    "type": "koordinater",
    "required": true,
    "label": "Koordinater",
    "tooltip": "Praesent commodo cursus magna, vel scelerisque nisl consectetur et. Lorem ipsum dolor sit amet, consectetur adipiscing elit. Sed posuere consectetur est at lobortis."
  },
  {
    "type": "submit",
    "back-button": false,
    "submit-text": "Lagre"
  }
]
